<?xml version="1.0" encoding="UTF-8" standalone="no"?>
<!-- Created with Inkscape (http://www.inkscape.org/) -->

<svg
   xmlns:dc="http://purl.org/dc/elements/1.1/"
   xmlns:cc="http://creativecommons.org/ns#"
   xmlns:rdf="http://www.w3.org/1999/02/22-rdf-syntax-ns#"
   xmlns:svg="http://www.w3.org/2000/svg"
   xmlns="http://www.w3.org/2000/svg"
   xmlns:sodipodi="http://sodipodi.sourceforge.net/DTD/sodipodi-0.dtd"
   xmlns:inkscape="http://www.inkscape.org/namespaces/inkscape"
   width="744.09448819"
   height="1052.3622047"
   id="svg2"
   version="1.1"
   inkscape:version="0.48.0 r9654"
   inkscape:export-filename="C:\Users\David\text5053.png"
   inkscape:export-xdpi="376"
   inkscape:export-ydpi="376"
   sodipodi:docname="helcorr.svg">
  <defs
     id="defs4">
    <marker
       inkscape:stockid="Arrow2Mstart"
       orient="auto"
       refY="0.0"
       refX="0.0"
       id="Arrow2Mstart"
       style="overflow:visible">
      <path
         id="path3810"
         style="font-size:12.0;fill-rule:evenodd;stroke-width:0.62500000;stroke-linejoin:round"
         d="M 8.7185878,4.0337352 L -2.2072895,0.016013256 L 8.7185884,-4.0017078 C 6.9730900,-1.6296469 6.9831476,1.6157441 8.7185878,4.0337352 z "
         transform="scale(0.6) translate(0,0)" />
    </marker>
    <inkscape:perspective
       sodipodi:type="inkscape:persp3d"
       inkscape:vp_x="0 : 526.18109 : 1"
       inkscape:vp_y="0 : 1000 : 0"
       inkscape:vp_z="744.09448 : 526.18109 : 1"
       inkscape:persp3d-origin="372.04724 : 350.78739 : 1"
       id="perspective4795" />
    <marker
       inkscape:stockid="Arrow2Send"
       orient="auto"
       refY="0.0"
       refX="0.0"
       id="Arrow2Send"
       style="overflow:visible;">
      <path
         id="path3819"
         style="font-size:12.0;fill-rule:evenodd;stroke-width:0.62500000;stroke-linejoin:round;"
         d="M 8.7185878,4.0337352 L -2.2072895,0.016013256 L 8.7185884,-4.0017078 C 6.9730900,-1.6296469 6.9831476,1.6157441 8.7185878,4.0337352 z "
         transform="scale(0.3) rotate(180) translate(-2.3,0)" />
    </marker>
    <marker
       inkscape:stockid="Arrow2Mend"
       orient="auto"
       refY="0.0"
       refX="0.0"
       id="Arrow2Mend"
       style="overflow:visible;">
      <path
         id="path3813"
         style="font-size:12.0;fill-rule:evenodd;stroke-width:0.62500000;stroke-linejoin:round;"
         d="M 8.7185878,4.0337352 L -2.2072895,0.016013256 L 8.7185884,-4.0017078 C 6.9730900,-1.6296469 6.9831476,1.6157441 8.7185878,4.0337352 z "
         transform="scale(0.6) rotate(180) translate(0,0)" />
    </marker>
    <marker
       inkscape:stockid="Arrow1Mend"
       orient="auto"
       refY="0.0"
       refX="0.0"
       id="Arrow1Mend"
       style="overflow:visible;">
      <path
         id="path3795"
         d="M 0.0,0.0 L 5.0,-5.0 L -12.5,0.0 L 5.0,5.0 L 0.0,0.0 z "
         style="fill-rule:evenodd;stroke:#000000;stroke-width:1.0pt;marker-start:none;"
         transform="scale(0.4) rotate(180) translate(10,0)" />
    </marker>
    <marker
       inkscape:stockid="Arrow1Lend"
       orient="auto"
       refY="0.0"
       refX="0.0"
       id="Arrow1Lend"
       style="overflow:visible;">
      <path
         id="path3789"
         d="M 0.0,0.0 L 5.0,-5.0 L -12.5,0.0 L 5.0,5.0 L 0.0,0.0 z "
         style="fill-rule:evenodd;stroke:#000000;stroke-width:1.0pt;marker-start:none;"
         transform="scale(0.8) rotate(180) translate(12.5,0)" />
    </marker>
  </defs>
  <sodipodi:namedview
     id="base"
     pagecolor="#ffffff"
     bordercolor="#666666"
     borderopacity="1.0"
     inkscape:pageopacity="1"
     inkscape:pageshadow="2"
     inkscape:zoom="1.1427322"
     inkscape:cx="368.76657"
     inkscape:cy="781.59919"
     inkscape:document-units="px"
     inkscape:current-layer="layer1"
     showgrid="false"
     showguides="true"
     inkscape:guide-bbox="true"
     inkscape:window-width="1280"
     inkscape:window-height="972"
     inkscape:window-x="-8"
     inkscape:window-y="-8"
     inkscape:window-maximized="1" />
  <metadata
     id="metadata7">
    <rdf:RDF>
      <cc:Work
         rdf:about="">
        <dc:format>image/svg+xml</dc:format>
        <dc:type
           rdf:resource="http://purl.org/dc/dcmitype/StillImage" />
        <dc:title></dc:title>
      </cc:Work>
    </rdf:RDF>
  </metadata>
  <g
     inkscape:label="Layer 1"
     inkscape:groupmode="layer"
     id="layer1">
    <path
       style="fill:none;stroke:#000000;stroke-width:2.78846574px;stroke-linecap:butt;stroke-linejoin:miter;stroke-opacity:1;marker-start:url(#Arrow2Mstart);marker-end:url(#Arrow2Mend)"
       d="M 324.47341,216.44889 73.706818,385.23901 409.12314,340.93261"
       id="path5069"
       inkscape:connector-curvature="0"
       sodipodi:nodetypes="ccc" />
    <path
       sodipodi:type="star"
       style="fill:#000000;fill-opacity:1;stroke:none"
       id="path5071"
       sodipodi:sides="5"
       sodipodi:cx="208.67149"
       sodipodi:cy="108.41679"
       sodipodi:r1="5.6270962"
       sodipodi:r2="2.8135481"
       sodipodi:arg1="-1.5707963"
       sodipodi:arg2="-0.9424778"
       inkscape:flatsided="false"
       inkscape:rounded="0"
       inkscape:randomized="0"
       d="m 208.67149,102.78969 1.65377,3.35089 3.69792,0.53734 -2.67584,2.6083 0.63168,3.68298 -3.30753,-1.73887 -3.30752,1.73887 0.63168,-3.68298 -2.67584,-2.6083 3.69792,-0.53734 z"
       inkscape:transform-center-y="-1.4983582"
       transform="matrix(2.7884655,0,0,2.7884655,81.539062,4.1092793)" />
    <path
       sodipodi:nodetypes="cc"
       inkscape:connector-curvature="0"
       id="path5073"
       d="M 73.324465,385.62136 666.98783,307.37348"
       style="fill:none;stroke:#000000;stroke-width:1.11538625;stroke-linecap:butt;stroke-linejoin:miter;stroke-miterlimit:4;stroke-opacity:1;stroke-dasharray:8.92308975, 8.92308975;stroke-dashoffset:0" />
    <path
       sodipodi:type="arc"
       style="fill:none;stroke:#000000;stroke-opacity:1"
       id="path5075"
       sodipodi:cx="164.12364"
       sodipodi:cy="124.82915"
       sodipodi:rx="7.0338702"
       sodipodi:ry="7.0338702"
       d="m 171.15751,124.82915 a 7.0338702,7.0338702 0 1 1 -14.06774,0 7.0338702,7.0338702 0 1 1 14.06774,0 z"
       transform="matrix(2.7884655,0,0,2.7884655,-131.5829,-133.39591)" />
    <path
       sodipodi:type="arc"
       style="fill:#000000;stroke:none"
       id="path5459"
       sodipodi:cx="30.443695"
       sodipodi:cy="110.24218"
       sodipodi:rx="3.882082"
       sodipodi:ry="3.882082"
       d="m 34.325777,110.24218 a 3.882082,3.882082 0 1 1 -7.764164,0 3.882082,3.882082 0 1 1 7.764164,0 z"
       transform="matrix(2.7884655,0,0,2.7884655,-10.986514,77.296429)" />
    <text
       xml:space="preserve"
       style="font-size:24px;font-style:normal;font-weight:normal;line-height:125%;letter-spacing:0px;word-spacing:0px;fill:#000000;fill-opacity:1;stroke:none;font-family:Sans;-inkscape-font-specification:Sans;font-stretch:normal;font-variant:normal;text-anchor:start;text-align:start;writing-mode:lr"
       x="176.61752"
       y="296.45453"
       id="text5461"
       sodipodi:linespacing="125%"><tspan
         sodipodi:role="line"
         id="tspan5463"
         x="176.61752"
         y="296.45453">s</tspan></text>
    <text
       xml:space="preserve"
       style="font-size:24px;font-style:normal;font-weight:normal;line-height:125%;letter-spacing:0px;word-spacing:0px;fill:#000000;fill-opacity:1;stroke:none;font-family:Sans;-inkscape-font-specification:Sans;font-stretch:normal;font-variant:normal;text-anchor:start;text-align:start;writing-mode:lr"
       x="243.11609"
       y="351.92242"
       id="text5465"
       sodipodi:linespacing="125%"><tspan
         sodipodi:role="line"
         id="tspan5467"
         x="243.11609"
         y="351.92242">n</tspan></text>
    <path
       style="fill:none;stroke:#000000;stroke-width:0.83653969;stroke-linecap:butt;stroke-linejoin:miter;stroke-miterlimit:4;stroke-opacity:1;stroke-dasharray:none;stroke-dashoffset:0"
       d="m 349.23067,376.74328 -22.39969,-162.043"
       id="path5471"
       inkscape:connector-curvature="0"
       sodipodi:nodetypes="cc" />
    <path
       sodipodi:nodetypes="cc"
       inkscape:connector-curvature="0"
       id="path5473"
       d="M 79.27848,412.00203 74.657406,377.39341"
       style="fill:none;stroke:#000000;stroke-width:0.83653969;stroke-linecap:butt;stroke-linejoin:miter;stroke-miterlimit:4;stroke-opacity:1;stroke-dasharray:none;stroke-dashoffset:0" />
    <path
       style="fill:none;stroke:#000000;stroke-width:2.78846574;stroke-linecap:butt;stroke-linejoin:miter;stroke-miterlimit:4;stroke-opacity:1;stroke-dasharray:none;stroke-dashoffset:0;marker-start:none;marker-end:url(#Arrow2Mend)"
       d="M 78.477439,403.92393 344.5067,368.94888"
       id="path5477"
       inkscape:connector-curvature="0"
       sodipodi:nodetypes="cc" />
    <text
       sodipodi:linespacing="125%"
       id="text6239"
       y="413.74115"
       x="201.0463"
       style="font-size:24px;font-style:normal;font-weight:normal;line-height:125%;letter-spacing:0px;word-spacing:0px;fill:#000000;fill-opacity:1;stroke:none;font-family:Sans;-inkscape-font-specification:Sans;font-stretch:normal;font-variant:normal;text-anchor:start;text-align:start;writing-mode:lr"
       xml:space="preserve"><tspan
         y="413.74115"
         x="201.0463"
         id="tspan6241"
         sodipodi:role="line">r</tspan></text>
    <text
       xml:space="preserve"
       style="font-size:24px;font-style:normal;font-variant:normal;font-weight:normal;font-stretch:normal;text-align:start;line-height:125%;letter-spacing:0px;word-spacing:0px;writing-mode:lr-tb;text-anchor:start;fill:#000000;fill-opacity:1;stroke:none;font-family:Sans;-inkscape-font-specification:Sans"
       x="350.33701"
       y="223.95201"
       id="text6243"
       sodipodi:linespacing="125%"><tspan
         sodipodi:role="line"
         id="tspan6245"
         x="350.33701"
         y="223.95201">Sun</tspan></text>
    <text
       sodipodi:linespacing="125%"
       id="text6247"
       y="362.51031"
       x="42.454178"
       style="font-size:24px;font-style:normal;font-variant:normal;font-weight:normal;font-stretch:normal;text-align:start;line-height:125%;letter-spacing:0px;word-spacing:0px;writing-mode:lr-tb;text-anchor:start;fill:#000000;fill-opacity:1;stroke:none;font-family:Sans;-inkscape-font-specification:Sans"
       xml:space="preserve"><tspan
         y="362.51031"
         x="42.454178"
         id="tspan6249"
         sodipodi:role="line">Earth</tspan></text>
    <text
       xml:space="preserve"
       style="font-size:22.30772591px;font-style:normal;font-weight:normal;line-height:125%;letter-spacing:0px;word-spacing:0px;fill:#000000;fill-opacity:1;stroke:none;font-family:Sans"
       x="585.72467"
       y="303.38742"
       id="text6251"
       sodipodi:linespacing="125%"><tspan
         sodipodi:role="line"
         id="tspan6253"
         x="585.72467"
         y="303.38742">object</tspan></text>
    <rect
       style="fill:none;stroke:#000000;stroke-width:0.83653969;stroke-miterlimit:4;stroke-opacity:1;stroke-dasharray:none"
       id="rect6255"
       width="14.809807"
       height="14.809807"
       x="296.75967"
       y="375.96136"
       transform="matrix(0.99142125,-0.13070538,0.13070538,0.99142125,0,0)" />
    <path
       transform="matrix(15.490823,0,0,15.490823,-397.69321,-1323.0391)"
       d="m 33.669884,108.08295 a 3.882082,3.882082 0 0 1 0.621224,1.64156"
       sodipodi:ry="3.882082"
       sodipodi:rx="3.882082"
       sodipodi:cy="110.24218"
       sodipodi:cx="30.443695"
       id="path3014"
       style="fill:none;stroke:#000000;stroke-width:0.17429674000000001;stroke-miterlimit:4;stroke-opacity:1;stroke-dasharray:none;marker-end:none"
       sodipodi:type="arc"
       sodipodi:start="5.6933747"
       sodipodi:end="6.1494395"
       sodipodi:open="true" />
    <text
       xml:space="preserve"
       style="font-size:24px;font-style:normal;font-variant:normal;font-weight:normal;font-stretch:normal;text-align:start;line-height:125%;letter-spacing:0px;word-spacing:0px;writing-mode:lr-tb;text-anchor:start;fill:#000000;fill-opacity:1;stroke:none;font-family:Sans;-inkscape-font-specification:Sans"
       x="137.04781"
       y="366.48276"
       id="text4004"
       sodipodi:linespacing="125%"><tspan
         sodipodi:role="line"
         id="tspan4006"
         x="137.04781"
         y="366.48276">θ</tspan></text>
  </g>
</svg>
